C:\SpringBootPrograms\Spring_Boot_Junit_Inmemory_Database\src\main\java\com\dhanjyothi\Application.java
C:\SpringBootPrograms\Spring_Boot_Junit_Inmemory_Database\src\main\java\com\dhanjyothi\PersonDao.java
C:\SpringBootPrograms\Spring_Boot_Junit_Inmemory_Database\src\main\java\com\dhanjyothi\PersonService.java
C:\SpringBootPrograms\Spring_Boot_Junit_Inmemory_Database\src\main\java\com\dhanjyothi\DBConfiguration.java
C:\SpringBootPrograms\Spring_Boot_Junit_Inmemory_Database\src\main\java\com\dhanjyothi\PersonController.java
C:\SpringBootPrograms\Spring_Boot_Junit_Inmemory_Database\src\main\java\com\dhanjyothi\Person.java
